producto,valor
arroz,3500
papa,1700
chocolate,800
panela,1000
azucar,1200
sal,1400
pan,2000
galletas,2000
tostadas,2500
leche,3000
yogurt,3000
salchicha,5800
salchicon,2000
carne,5000
mantequilla,2400
salsa,1000
ajo,1000
jamon,3000
queso,3000
mortadela,3000
canela ,500